OmniPath Bioconductor workshop • OmnipathR
…
mirnatarget: literature curated miRNA-mRNA interactions import_mirnatarget_interactions

tf_mirna: literature curated TF-miRNA interactions (transcriptional regulations of miRNA) import_tf_mirna_interactions

lncRNA interactions (lncrna_post_transcriptional)

lncrna_mrna: literature curated lncRNA-mRNA interactions import_lncrna_mrna_interactions

Not individual interactions but resource are classified into the datasets above, so these can overlap. Each interaction type and dataset has its dedicated function in OmnipathR, above we provide links to their help pages. As an example, let’s see the gene regulatory interactions:

gri <- import_transcriptional_interactions()
gri

## # A tibble: 73,802 x 17
##    source target source_genesymbol target_genesymb… is_directed is_stimulation is_inhibition consensus_direct…
##    <chr>  <chr>  <chr>             <chr>                  <dbl>          <dbl>         <dbl>             <dbl>
##  1 P35869 Q9ULH1 AHR               ASAP1                      1              0             0                 0
##  2 P35869 P04798 AHR               CYP1A1                     1              1             0                 1
##  3 P35869 P05177 AHR               CYP1A2                     1              0             0                 0
##  4 P35869 Q16678 AHR               CYP1B1                     1              1             0                 1
##  5 P35869 P11308 AHR               ERG                        1              0             0                 0
##  6 P01100 P35869 FOS               AHR                        1              0             0                 0
##  7 P35869 P01100 AHR               FOS                        1              0             0                 0
##  8 P35869 P01106 AHR               MYC                        1              0             0                 0
##  9 P35869 Q07889 AHR               SOS1                       1              0             0                 0
## 10 P35869 P19224 AHR               UGT1A6                     1              0             0                 0
## # … with 73,792 more rows, and 9 more variables: consensus_stimulation <dbl>, consensus_inhibition <dbl>,
## #   dip_url <lgl>, sources <chr>, references <chr>, curation_effort <dbl>, dorothea_level <chr>,
## #   n_references <chr>, n_resources <int>
…
As this is a gene regulatory network, the paths are TFs regulating the transcription of other TFs.

Enzyme-substrate relationships

Enzyme-substrate interactions are also available also in the interactions query, but the enzyme-substrate query type provides additional information about the PTM types and residues.

enz_sub <- import_omnipath_enzsub()
enz_sub

## # A tibble: 39,042 x 12
##    enzyme substrate enzyme_genesymbol substrate_genes… residue_type residue_offset modification sources       
##    <chr>  <chr>     <chr>             <chr>            <chr>                 <dbl> <chr>        <chr>         
##  1 P06239 O14543    LCK               SOCS3            Y                       204 phosphoryla… KEA;MIMP;Phos…
##  2 P06239 O14543    LCK               SOCS3            Y                       221 phosphoryla… KEA;MIMP;Phos…
##  3 P12931 O14746    SRC               TERT             Y                       707 phosphoryla… BEL-Large-Cor…
##  4 P06241 O15117    FYN               FYB1             Y                       651 phosphoryla… HPRD;KEA;Phos…
##  5 P06241 O15117    FYN               FYB1             Y                       595 phosphoryla… HPRD;KEA;Phos…
##  6 P06241 O15117    FYN               FYB1             Y                       697 phosphoryla… HPRD;KEA;Phos…
##  7 P06241 O15117    FYN               FYB1             Y                       625 phosphoryla… PhosphoSite;P…
##  8 P06241 O15117    FYN               FYB1             Y                       771 phosphoryla… PhosphoSite;P…
##  9 P06241 O15117    FYN               FYB1             Y                       559 phosphoryla… PhosphoSite;P…
## 10 P06241 O15117    FYN               FYB1             Y                       755 phosphoryla… PhosphoSite;P…
## # … with 39,032 more rows, and 4 more variables: references <chr>, curation_effort <dbl>, n_references <chr>,
## #   n_resources <int>
…
It is also possible to add effect signs (stimulatory or inhibitory) to enzyme-PTM relationships:

es_signed <- get_signed_ptms(enz_sub)

Protein complexes

cplx <- import_omnipath_complexes()
cplx

## # A tibble: 28,173 x 7
##    name    components      components_genesy… stoichiometry sources         references      identifiers       
##    <chr>   <chr>           <chr>              <chr>         <chr>           <chr>           <chr>             
##  1 NFY     P23511_P25208_… NFYA_NFYB_NFYC     1:1:1         CORUM;Compleat… 15243141;93729… CORUM:4478;Comple…
##  2 mTORC2  P68104_P85299_… DEPTOR_EEF1A1_MLS… 0:0:0:0:0     Signor          <NA>            Signor:SIGNOR-C2  
##  3 mTORC1  P42345_Q8N122_… AKT1S1_DEPTOR_MLS… 0:0:0:0:0     Signor          <NA>            Signor:SIGNOR-C3  
##  4 SCF-be… P63208_Q13616_… BTRC_CUL1_SKP1     1:1:1         CORUM;Compleat… 9990852         CORUM:227;Complea…
##  5 CBP/p3… Q09472_Q92793   CREBBP_EP300       0:0           Signor          <NA>            Signor:SIGNOR-C6  
##  6 P300/P… Q09472_Q92793_… CREBBP_EP300_KAT2B 0:0:0         Signor          <NA>            Signor:SIGNOR-C7  
##  7 SMAD2/… Q13485_Q15796   SMAD2_SMAD4        1:2           ComplexPortal;… 12923550;80616… PDB:1u7v;Signor:S…
##  8 SMAD3/… P84022_Q13485   SMAD3_SMAD4        2:1           ComplexPortal;… 12923550;80616… PDB:1U7F;PDB:1u7f…
##  9 SMAD4/… P05412_Q13485   JUN_SMAD4          0:0           Signor          <NA>            Signor:SIGNOR-C10 
## 10 SMAD2/… Q15796_Q9HAU4   SMAD2_SMURF2       1:1           Compleat;Signor 11389444        Compleat:HC501;Si…
## # … with 28,163 more rows

The resulted data frame provides the constitution and stoichiometry of protein complexes, with references.

Annotations

The annotations query type includes a diverse set of resources (about 60 of them), about protein function, localization, structure and expression. For most use cases it is better to convert the data into wide data frames, as these correspond to the original format of the resources. If you load more than one resources into wide data frames, the result will be a list of data frames, otherwise one data frame. See a few examples with localization data from UniProt, tissue expression from Human Protein Atlas and pathway information from SignaLink:

uniprot_loc <- import_omnipath_annotations(
    resources = 'UniProt_location',
    wide = TRUE
)
uniprot_loc

## # A tibble: 55,470 x 5
##    uniprot genesymbol entity_type location                features                   
##    <chr>   <chr>      <chr>       <chr>                   <chr>                      
##  1 Q99470  SDF2       protein     Secreted                <NA>                       
##  2 O75494  SRSF10     protein     Nucleus speckle         <NA>                       
##  3 O75494  SRSF10     protein     Cytoplasm               <NA>                       
##  4 Q9NQ55  PPAN       protein     Nucleus                 <NA>                       
##  5 Q9NQ55  PPAN       protein     Nucleolus               <NA>                       
##  6 Q8IW03  SIAH3      protein     Mitochondrion           <NA>                       
##  7 Q96L92  SNX27      protein     Cytosol                 <NA>                       
##  8 Q96L92  SNX27      protein     Early endosome membrane Peripheral membrane protein
##  9 Q96L92  SNX27      protein     Cytoplasm               <NA>                       
## 10 Q99598  TSNAX      protein     Nucleus                 <NA>                       
## # … with 55,460 more rows
…
uniprot_loc <- import_omnipath_annotations(
    resource = 'UniProt_location',
    wide = TRUE
)

Another example with tissue expression from Human Protein Atlas:

hpa_tissue <- import_omnipath_annotations(
    resources = 'HPA_tissue',
    wide = TRUE
)
hpa_tissue

## # A tibble: 1,810,497 x 15
##    uniprot genesymbol entity_type organ  tissue    level status prognostic favourable pathology n_not_detected
##    <chr>   <chr>      <chr>       <chr>  <chr>     <chr> <chr>  <chr>      <chr>      <chr>     <chr>         
##  1 O43657  TSPAN6     protein     skin 1 fibrobla… Not … Appro… False      False      False     <NA>          
##  2 O43657  TSPAN6     protein     soft … peripher… Not … Appro… False      False      False     <NA>          
##  3 O43657  TSPAN6     protein     endom… glandula… High  Appro… False      False      False     <NA>          
##  4 O43657  TSPAN6     protein     lung   pneumocy… Low   Appro… False      False      False     <NA>          
##  5 O43657  TSPAN6     protein     small… glandula… Medi… Appro… False      False      False     <NA>          
##  6 O43657  TSPAN6     protein     hippo… glial ce… Not … Appro… False      False      False     <NA>          
##  7 O43657  TSPAN6     protein     spleen cells in… Not … Appro… False      False      False     <NA>          
##  8 O43657  TSPAN6     protein     nasop… respirat… High  Appro… False      False      False     <NA>          
##  9 O43657  TSPAN6     protein     lymph… lymphoma  Not … <NA>   <NA>       <NA>       True      11            
## 10 O43657  TSPAN6     protein     bone … hematopo… Not … Appro… False      False      False     <NA>          
## # … with 1,810,487 more rows, and 4 more variables: n_low <chr>, n_medium <chr>, n_high <chr>, score <chr>

And pathway annotations from SignaLink:

slk_pathw <- import_omnipath_annotations(
    resources = 'SignaLink_pathway',
    wide = TRUE
)
slk_pathw

## # A tibble: 2,372 x 4
##    uniprot genesymbol entity_type pathway                 
##    <chr>   <chr>      <chr>       <chr>                   
##  1 P20963  CD247      protein     T-cell receptor         
##  2 P43403  ZAP70      protein     Receptor tyrosine kinase
##  3 P43403  ZAP70      protein     T-cell receptor         
##  4 Q9NYJ8  TAB2       protein     Receptor tyrosine kinase
##  5 Q9NYJ8  TAB2       protein     Innate immune pathways  
##  6 Q9NYJ8  TAB2       protein     Toll-like receptor      
##  7 Q9NYJ8  TAB2       protein     JAK/STAT                
##  8 O43318  MAP3K7     protein     Receptor tyrosine kinase
##  9 O43318  MAP3K7     protein     WNT                     
## 10 O43318  MAP3K7     protein     Toll-like receptor      
## # … with 2,362 more rows

Combining networks with annotations

Annotations can be easily added to network data frames, in this case both the source and target nodes will have their annotation data. This function accepts either the name of an annotation resource or an annotation data frame:

network <- import_omnipath_interactions()

network_slk_pw <- annotated_network(network, 'SignaLink_pathway')
network_slk_pw

## # A tibble: 79,245 x 18
##    source target source_genesymbol target_genesymb… is_directed is_stimulation is_inhibition consensus_direct…
##    <chr>  <chr>  <chr>             <chr>                  <dbl>          <dbl>         <dbl>             <dbl>
##  1 P0DP25 P48995 CALM3             TRPC1                      1              0             1                 1
##  2 Q03135 P48995 CAV1              TRPC1                      1              1             0                 1
##  3 P14416 P48995 DRD2              TRPC1                      1              1             0                 1
##  4 Q02790 P48995 FKBP4             TRPC1                      1              0             1                 1
##  5 Q99750 P48995 MDFI              TRPC1                      1              0             1                 1
##  6 Q14571 P48995 ITPR2             TRPC1                      1              1             0                 1
##  7 P29966 P48995 MARCKS            TRPC1                      1              0             1                 1
##  8 Q13255 P48995 GRM1              TRPC1                      1              1             0                 1
##  9 Q13586 P48995 STIM1             TRPC1                      1              1             0                 1
## 10 P48995 Q13507 TRPC1             TRPC3                      1              1             0                 1
## # … with 79,235 more rows, and 10 more variables: consensus_stimulation <dbl>, consensus_inhibition <dbl>,
## #   dip_url <chr>, sources <chr>, references <chr>, curation_effort <dbl>, n_references <chr>,
## #   n_resources <int>, pathway_source <chr>, pathway_target <chr>

Intercellular communication roles

The intercell database assigns roles to proteins such as ligand, receptor, adhesion, transporter, ECM, etc. The design of this database is far from being simple, best is to check the description in the recent OmniPath paper [1].

ic <- import_omnipath_intercell()
ic

## # A tibble: 301,527 x 15
##    category  parent  database  scope aspect source  uniprot genesymbol entity_type consensus_score transmitter
##    <chr>     <chr>   <chr>     <chr> <chr>  <chr>   <chr>   <chr>      <chr>                 <dbl> <lgl>      
##  1 transmem… transm… UniProt_… gene… locat… resour… Q9H6L2  TMEM231    protein                   5 FALSE      
##  2 transmem… transm… UniProt_… gene… locat… resour… Q8NFT8  DNER       protein                   8 FALSE      
##  3 transmem… transm… UniProt_… gene… locat… resour… Q6NTF9  RHBDD2     protein                   5 FALSE      
##  4 transmem… transm… UniProt_… gene… locat… resour… Q9H1U9  SLC25A51   protein                   5 FALSE      
##  5 transmem… transm… UniProt_… gene… locat… resour… Q6V0L0  CYP26C1    protein                   5 FALSE      
##  6 transmem… transm… UniProt_… gene… locat… resour… Q5QGT7  RTP2       protein                   6 FALSE      
##  7 transmem… transm… UniProt_… gene… locat… resour… O60320  FAM189A1   protein                   5 FALSE      
##  8 transmem… transm… UniProt_… gene… locat… resour… A2RU48  SMCO3      protein                   5 FALSE      
##  9 transmem… transm… UniProt_… gene… locat… resour… Q9UHF4  IL20RA     protein                   8 FALSE      
## 10 transmem… transm… UniProt_… gene… locat… resour… Q08722  CD47       protein                   7 FALSE      
## # … with 301,517 more rows, and 4 more variables: receiver <lgl>, secreted <lgl>,
## #   plasma_membrane_transmembrane <lgl>, plasma_membrane_peripheral <lgl>

This data frame is about individual proteins. To create a network of intercellular communication, we provide the import_intercell_network function:

icn <- import_intercell_network(high_confidence = TRUE)
icn

## # A tibble: 6,544 x 46
##    category_intercell… parent_intercell_… source target category_intercell… parent_intercell… target_genesymb…
##    <chr>               <chr>              <chr>  <chr>  <chr>               <chr>             <chr>           
##  1 activating_cofactor receptor_regulator O14786 P35968 receptor            receptor          KDR             
##  2 activating_cofactor receptor_regulator O14786 Q9UIW2 receptor            receptor          PLXNA1          
##  3 activating_cofactor receptor_regulator P08138 P04629 receptor            receptor          NTRK1           
##  4 activating_cofactor receptor_regulator P34925 Q9H461 receptor            receptor          FZD8            
##  5 activating_cofactor receptor_regulator Q01973 P21860 receptor            receptor          ERBB3           
##  6 activating_cofactor receptor_regulator Q01974 O00238 receptor            receptor          BMPR1B          
##  7 activating_cofactor receptor_regulator Q01974 Q13467 receptor            receptor          FZD5            
##  8 activating_cofactor receptor_regulator Q01974 Q13467 tight_junction      tight_junction    FZD5            
##  9 activating_cofactor receptor_regulator Q01974 Q14332 receptor            receptor          FZD2            
## 10 activating_cofactor receptor_regulator Q13145 O00238 receptor            receptor          BMPR1B          
## # … with 6,534 more rows, and 39 more variables: source_genesymbol <chr>, is_directed <dbl>,
## #   is_stimulation <dbl>, is_inhibition <dbl>, consensus_direction <dbl>, consensus_stimulation <dbl>,
## #   consensus_inhibition <dbl>, dip_url <chr>, ligrecextra <lgl>, omnipath <lgl>, sources <chr>,
## #   references <chr>, curation_effort <dbl>, n_references <chr>, n_resources <int>,
## #   database_intercell_source <chr>, scope_intercell_source <chr>, aspect_intercell_source <chr>,
## #   category_source_intercell_source <chr>, genesymbol_intercell_source <chr>,
## #   entity_type_intercell_source <chr>, consensus_score_intercell_source <dbl>,
## #   transmitter_intercell_source <lgl>, receiver_intercell_source <lgl>, secreted_intercell_source <lgl>,
## #   plasma_membrane_transmembrane_intercell_source <lgl>, plasma_membrane_peripheral_intercell_source <lgl>,
…
Gene Ontology

OmnipathR is able to look up ancestors and descendants in ontology trees, and also exposes the ontology tree in three different formats: as a data frame, as a list of lists or as an igraph graph object. All these can have two directions: child-to-parent (c2p) or parent-to-child (p2c).

go <- go_ontology_download()
go$rel_tbl_c2p

## # A tibble: 59,288 x 3
##    term       relation parents  
##    <fct>      <chr>    <list>   
##  1 GO:0000001 is_a     <chr [2]>
##  2 GO:0000002 is_a     <chr [1]>
##  3 GO:0000003 is_a     <chr [1]>
##  4 GO:0000006 is_a     <chr [1]>
##  5 GO:0000007 is_a     <chr [1]>
##  6 GO:0000009 is_a     <chr [1]>
##  7 GO:0000010 is_a     <chr [1]>
##  8 GO:0000011 is_a     <chr [2]>
##  9 GO:0000012 is_a     <chr [1]>
## 10 GO:0000014 is_a     <chr [1]>
## # … with 59,278 more rows
…
