The database manager in OmnipathR • OmnipathR
…
It returns a tibble where each dataset has a human readable name and a key which can be used to refer to it. We can also check here if the dataset is currently loaded, the time it’s been last used, the loader function and its arguments.

Access a dataset

Datasets can be accessed by the get_db function. Ideally you should call this function every time you use the dataset. The first time it will be loaded, the subsequent times the already loaded dataset will be returned. This way each access is registered and extends the expiry time. Let’s load the human UniProt-GeneSymbol table. Above we see its key is up_gs_human.

up_gs <- get_db('up_gs_human')
up_gs

## # A tibble: 20,344 × 2
##    From   To     
##    <chr>  <chr>  
##  1 Q96NG5 ZNF558 
##  2 Q6ZN19 ZNF841 
##  3 Q86XN6 ZNF761 
##  4 A8MUZ8 ZNF705G
##  5 Q08ER8 ZNF543 
##  6 Q9GZX5 ZNF350 
##  7 Q9GZP7 VN1R1  
##  8 Q3MJ13 WDR72  
##  9 Q9NY84 VNN3   
## 10 B1APH4 ZNF487 
## # … with 20,334 more rows
…
The above table contains also a reference to the dataset, and the arguments passed to the loader function:

d <- omnipath_show_db()
d %>% dplyr::pull(db) %>% magrittr::extract2(16)

## # A tibble: 20,344 × 2
##    From   To     
##    <chr>  <chr>  
##  1 Q96NG5 ZNF558 
##  2 Q6ZN19 ZNF841 
##  3 Q86XN6 ZNF761 
##  4 A8MUZ8 ZNF705G
##  5 Q08ER8 ZNF543 
##  6 Q9GZX5 ZNF350 
##  7 Q9GZP7 VN1R1  
##  8 Q3MJ13 WDR72  
##  9 Q9NY84 VNN3   
## 10 B1APH4 ZNF487 
## # … with 20,334 more rows
…
## 
## 
## $latest_param
## $latest_param$to
## [1] "genesymbol"
## 
## $latest_param$organism
## [1] 9606
## 
## 
## $loaded
## [1] TRUE
## 
## $db
## # A tibble: 20,344 × 2
##    From   To     
##    <chr>  <chr>  
##  1 Q96NG5 ZNF558 
##  2 Q6ZN19 ZNF841 
##  3 Q86XN6 ZNF761 
##  4 A8MUZ8 ZNF705G
##  5 Q08ER8 ZNF543 
##  6 Q9GZX5 ZNF350 
##  7 Q9GZP7 VN1R1  
##  8 Q3MJ13 WDR72  
##  9 Q9NY84 VNN3   
## 10 B1APH4 ZNF487 
## # … with 20,334 more rows
…
