Resource specific interaction attributes • OmnipathR
…
Loading a network

library(OmnipathR)

First we retrieve the complete directed PPI network. Importantly, the
extra attributes are only included if the
fields = "extra_attrs" argument is provided.

i <- import_post_translational_interactions(fields = 'extra_attrs')
dplyr::select(i, source_genesymbol, target_genesymbol, extra_attrs)

## # A tibble: 134,282 × 3
##    source_genesymbol target_genesymbol extra_attrs     
##    <chr>             <chr>             <list>          
##  1 CALM1             TRPC1             <named list [1]>
##  2 CALM3             TRPC1             <named list [1]>
##  3 CALM2             TRPC1             <named list [1]>
##  4 CAV1              TRPC1             <named list [1]>
##  5 DRD2              TRPC1             <named list [1]>
##  6 MDFI              TRPC1             <named list [1]>
##  7 ITPR2             TRPC1             <named list [1]>
##  8 MARCKS            TRPC1             <named list [1]>
##  9 TRPC1             GRM1              <named list [0]>
## 10 GRM1              TRPC1             <named list [1]>
## # ℹ 134,272 more rows
…
dplyr::select(
    i0,
    source_genesymbol,
    target_genesymbol,
    si_mechanism,
    ma_mechanism
)

## # A tibble: 61,406 × 4
##    source_genesymbol target_genesymbol si_mechanism ma_mechanism
##    <chr>             <chr>             <list>       <list>      
##  1 PRKG1             TRPC3             <list [1]>   <NULL>      
##  2 PRKG1             TRPC7             <list [1]>   <NULL>      
##  3 OS9               TRPV4             <list [1]>   <NULL>      
##  4 PTPN1             TRPV6             <list [1]>   <NULL>      
##  5 RACK1             TRPM6             <list [1]>   <NULL>      
##  6 PRKACA            MCOLN1            <list [1]>   <NULL>      
##  7 MAPK14            MAPKAPK2          <list [1]>   <list [1]>  
##  8 MAPKAPK2          HNRNPA0           <list [2]>   <NULL>      
##  9 MAPKAPK2          PARN              <list [2]>   <NULL>      
## 10 JAK2              EPOR              <list [2]>   <NULL>      
## # ℹ 61,396 more rows
…
dplyr::select(
    i1,
    source_genesymbol,
    target_genesymbol,
    si_mechanism,
    ma_mechanism
)

## # A tibble: 63,434 × 4
##    source_genesymbol target_genesymbol si_mechanism ma_mechanism
##    <chr>             <chr>             <list>       <list>      
##  1 PRKG1             TRPC3             <chr [1]>    <NULL>      
##  2 PRKG1             TRPC7             <chr [1]>    <NULL>      
##  3 OS9               TRPV4             <chr [1]>    <NULL>      
##  4 PTPN1             TRPV6             <chr [1]>    <NULL>      
##  5 RACK1             TRPM6             <chr [1]>    <NULL>      
##  6 PRKACA            MCOLN1            <chr [1]>    <NULL>      
##  7 MAPK14            MAPKAPK2          <chr [1]>    <chr [1]>   
##  8 MAPKAPK2          HNRNPA0           <chr [1]>    <NULL>      
##  9 MAPKAPK2          HNRNPA0           <chr [1]>    <NULL>      
## 10 MAPKAPK2          PARN              <chr [1]>    <NULL>      
## # ℹ 63,424 more rows
…
nrow(with_extra_attrs(i, SIGNOR_mechanism, CA1_effect, Li2012_mechanism))

## [1] 62017

It is possible to filter the records not only by the names but the
values of the extra attributes. Let’s select the interactions which are
phosphorylation according to SIGNOR:

phos <- c('phosphorylation', 'Phosphorylation')

si_phos <- filter_extra_attrs(i, SIGNOR_mechanism = phos)

dplyr::select(si_phos, source_genesymbol, target_genesymbol)

## # A tibble: 4,353 × 2
##    source_genesymbol                                target_genesymbol
##    <chr>                                            <chr>            
##  1 PRKG1                                            TRPC3            
##  2 PRKG1                                            TRPC7            
##  3 PRKACA                                           MCOLN1           
##  4 MAPK14                                           MAPKAPK2         
##  5 MAPKAPK2                                         HNRNPA0          
##  6 MAPKAPK2                                         PARN             
##  7 JAK2                                             EPOR             
##  8 MAPK14                                           ZFP36            
##  9 MAPKAPK2                                         ZFP36            
## 10 PRKAA1_PRKAA2_PRKAB1_PRKAB2_PRKAG1_PRKAG2_PRKAG3 CRTC2            
## # ℹ 4,343 more rows
…
i_ubi <-
    dplyr::distinct(
        dplyr::bind_rows(
            purrr::map(
                keys_ubi,
                function(k){
                    filter_extra_attrs(i, !!k := ubi_kws, na_ok = FALSE)
                }
            )
        )
    )

dplyr::select(i_ubi, source_genesymbol, target_genesymbol)

## # A tibble: 49,308 × 2
##    source_genesymbol target_genesymbol
##    <chr>             <chr>            
##  1 NUMB              NOTCH1           
##  2 BTRC_CUL1_SKP1    PER2             
##  3 PRKN              RANBP2           
##  4 PRKN              SNCA             
##  5 FBXW7             MYC              
##  6 UBE2T             FANCL            
##  7 BIRC2             TRAF2            
##  8 TRAF2             MAP3K14          
##  9 TRAF6             MAP3K7           
## 10 BTRC_CUL1_SKP1    WEE1             
## # ℹ 49,298 more rows
…
## [1] 259

We retrieved 2503 E3 ligases from UniProt. 83 of these has substrates
in the interaction database, while 67 of the effectors of the
interactions are not annotated in UniProt.

In the OmniPath enzyme-substrate database we collect ubiquitination
interactions from enzyme-PTM resources. However, these contain only a
small number of interactions:

es_ubi <- import_omnipath_enzsub(types = 'ubiquitination')
es_ubi

## # A tibble: 70 × 12
##    enzyme substrate enzyme_genesymbol substrate_genesymbol residue_type
##    <chr>  <chr>     <chr>             <chr>                <chr>       
##  1 Q12933 Q13546    TRAF2             RIPK1                K           
##  2 Q8IUD6 O95786    RNF135            RIGI                 K           
##  3 Q8IUD6 O95786    RNF135            RIGI                 K           
##  4 P60604 Q92813    UBE2G2            DIO2                 K           
##  5 P60604 Q92813    UBE2G2            DIO2                 K           
##  6 Q13489 Q13546    BIRC3             RIPK1                K           
##  7 Q96J02 Q7Z434    ITCH              MAVS                 K           
##  8 Q96J02 Q7Z434    ITCH              MAVS                 K           
##  9 Q66K89 P04637    E4F1              TP53                 K           
## 10 Q66K89 P04637    E4F1              TP53                 K           
## # ℹ 60 more rows
## # ℹ 7 more variables: residue_offset <dbl>, modification <chr>, sources <chr>,
## #   references <chr>, curation_effort <dbl>, n_references <int>,
## #   n_resources <int>
…
