OmnipathR: an R client for the OmniPath web service • OmnipathR
…
Figure 4: miRNA-TF-target network. Schematic network of the miRNA (red square nodes) targeting extit{GLI1} (yellow node) and the genes regulated by this TF (blue round nodes).

Small molecule-protein dataset

This new dataset has been first added to OmniPath in January 2022. It is still
quite small: 3.5k interactions from three resources (SIGNOR, CancerDrugsDB
and Cellinker), but has prospects of a great growth in the future. As an
example, lets look for targets of a cancer drug, the MEK inhibitor Trametinib:

trametinib_targets <- import_small_molecule_protein_interactions(
    sources = "TRAMETINIB"
)
print_interactions(trametinib_targets)

## # A tibble: 32 × 5
##    source                interaction target          n_resources n_references
##    <chr>                 <chr>       <chr>                 <int>        <dbl>
##  1 TRAMETINIB (11707110) ==( - )==>  MAP2K1 (Q02750)           2            1
##  2 TRAMETINIB (11707110) ==( - )==>  MAP2K2 (P36507)           2            1
##  3 TRAMETINIB (11707110) ==( ? )==>  MAP2K3 (P46734)           1            0
##  4 TRAMETINIB (11707110) ==( ? )==>  CDKN2A (Q8N726)           1            0
##  5 TRAMETINIB (11707110) ==( ? )==>  STAG2 (Q8N3U4)            1            0
##  6 TRAMETINIB (11707110) ==( ? )==>  ERBB3 (P21860)            1            0
##  7 TRAMETINIB (11707110) ==( ? )==>  ARAF (P10398)             1            0
##  8 TRAMETINIB (11707110) ==( ? )==>  DDX43 (Q9NXZ2)            1            0
##  9 TRAMETINIB (11707110) ==( ? )==>  GNAQ (P50148)             1            0
## 10 TRAMETINIB (11707110) ==( ? )==>  ETV5 (P41161)             1            0
## # ℹ 22 more rows
…
Then, we explore some annotations of its individual components. Pathways
where the proteins belong:

annotations <- import_omnipath_annotations(
    proteins = wrn_parp1_cplx_genes,
    resources = "NetPath"
)

dplyr::select(annotations, genesymbol, value)

## # A tibble: 86 × 2
##    genesymbol value                                              
##    <chr>      <chr>                                              
##  1 CDK2       Interleukin-2 (IL-2)                               
##  2 CDK2       Epidermal growth factor receptor (EGFR)            
##  3 CDK2       Thyroid-stimulating hormone (TSH)                  
##  4 CDK2       Kit Receptor                                       
##  5 CDK2       Notch                                              
##  6 CDK2       B cell receptor (BCR)                              
##  7 CDK2       Oncostatin-M (OSM)                                 
##  8 CDK2       Advanced glycation end-products (AGE/RAGE)         
##  9 CDK2       Transforming growth factor beta (TGF-beta) receptor
## 10 CDK2       Inhibitor of differentiation (ID)                  
## # ℹ 76 more rows
…
## We import the intercell data into a dataframe
intercell <- import_omnipath_intercell(
    scope = "generic",
    aspect = "locational"
)

## We check the intercell annotations for the individual components of
## our previous complex. We filter our data to print it in a good format
dplyr::filter(intercell, genesymbol %in% wrn_parp1_cplx_genes) %>%
dplyr::distinct(genesymbol, parent, .keep_all = TRUE) %>%
dplyr::select(category, genesymbol, parent) %>%
dplyr::arrange(genesymbol)

## # A tibble: 80 × 3
##    category        genesymbol parent         
##    <chr>           <chr>      <chr>          
##  1 extracellular   ACTB       extracellular  
##  2 intracellular   ACTB       intracellular  
##  3 intracellular   ATE1       intracellular  
##  4 intracellular   BANF1      intracellular  
##  5 secreted        CALR       secreted       
##  6 extracellular   CALR       extracellular  
##  7 intracellular   CALR       intracellular  
##  8 transmembrane   CAMK2D     transmembrane  
##  9 plasma_membrane CAMK2D     plasma_membrane
## 10 intracellular   CAMK2D     intracellular  
## # ℹ 70 more rows
…
