Retrieves the ConsensusPathDB network — consensuspathdb_download • OmnipathR
…
#> [1] 66088
# [1] 252302
colnames(cpdb_data)

#> [1] "databases"    "references"   "uniprot_a"    "confidence"   "record_id"   
#> [6] "uniprot_b"    "in_complex"   "genesymbol_a" "genesymbol_b"
# [1] "databases"  "references" "uniprot_a"    "confidence"   "record_id"
# [6] "uniprot_b"  "in_complex" "genesymbol_a" "genesymbol_b"
cpdb_data

#> # A tibble: 66,088 x 9
#>    databases   references    uniprot_a confidence record_id uniprot_b in_complex
#>    <chr>       <chr>         <chr>          <dbl>     <int> <chr>     <lgl>     
#>  1 Reactome    NA            SUMF2_HU…      0.998         1 SUMF1_HU… TRUE      
#>  2 Reactome    NA            SUMF1_HU…      0.998         1 SUMF2_HU… TRUE      
#>  3 BIND,HPRD,… 10093054,983… ABCC9_HU…      0.991         2 KCJ11_HU… TRUE      
#>  4 BIND,HPRD,… 10093054,983… KCJ11_HU…      0.991         2 ABCC9_HU… TRUE      
#>  5 Reactome,C… 31536960,229… ECHB_HUM…      1.00          3 ECHA_HUM… TRUE      
#>  6 Reactome,C… 31536960,229… ECHA_HUM…      1.00          3 ECHB_HUM… TRUE      
#>  7 Reactome,H… 25416956,129… TF2AA_HU…      0.999         4 T2AG_HUM… TRUE      
#>  8 Reactome,H… 25416956,129… T2AG_HUM…      0.999         4 TF2AA_HU… TRUE      
#>  9 IntAct,HPR… 19379695      PAR6A_HU…      0.996         5 DVL2_HUM… TRUE      
#> 10 IntAct,HPR… 19379695      DVL2_HUM…      0.996         5 PAR6A_HU… TRUE      
#> # … with 66,078 more rows, and 2 more variables: genesymbol_a <chr>,
#> #   genesymbol_b <chr>
…
