Curated ligand-receptor interactions — curated_ligand_receptor_interactions • OmnipathR
…
filter_intercell_network

annotated_network

import_post_translational_interactions

import_ligrecextra_interactions

    Examples

lr <- curated_ligand_receptor_interactions()
#> Error: The output colorization was canceled. isatty(stdout()) returned FALSE.
lr
#> # A tibble: 5,292 x 15
#>    source target source_genesymbol target_genesymbol is_directed is_stimulation
#>    <chr>  <chr>  <chr>             <chr>                   <dbl>          <dbl>
#>  1 P0DP23 Q13507 CALM1             TRPC3                       1              0
#>  2 P60903 Q9H1D0 S100A10           TRPV6                       1              1
#>  3 Q9Y219 P46531 JAG2              NOTCH1                      1              1
#>  4 O00548 P46531 DLL1              NOTCH1                      1              1
#>  5 P05019 P08069 IGF1              IGF1R                       1              1
#>  6 P08069 P05019 IGF1R             IGF1                        1              0
#>  7 P46531 P78504 NOTCH1            JAG1                        1              1
#>  8 P78504 P46531 JAG1              NOTCH1                      1              1
#>  9 P41221 Q14332 WNT5A             FZD2                        1              1
#> 10 Q9GZX6 Q08334 IL22              IL10RB                      1              1
#> # … with 5,282 more rows, and 9 more variables: is_inhibition <dbl>,
#> #   consensus_direction <dbl>, consensus_stimulation <dbl>,
#> #   consensus_inhibition <dbl>, sources <chr>, references <chr>,
#> #   curation_effort <dbl>, n_references <chr>, n_resources <int>
…
