TF-target interactions from DoRothEA — dorothea • OmnipathR
…
import_all_interactions

interaction_graph

print_interactions

    Examples

dorothea_grn <- dorothea(
    resources = c('DoRothEA', 'ARACNe-GTEx_DoRothEA'),
    organism = 9606,
    dorothea_levels = c('A', 'B', 'C')
)
dorothea_grn
#> # A tibble: 32,617 × 16
#>    source target source_genesymbol target_genesymbol is_directed is_stimulation
#>    <chr>  <chr>  <chr>             <chr>                   <int>          <int>
#>  1 P01106 O14746 MYC               TERT                        1              1
#>  2 P84022 P05412 SMAD3             JUN                         1              1
#>  3 Q13485 P05412 SMAD4             JUN                         1              1
#>  4 P08047 P04075 SP1               ALDOA                       1              1
#>  5 P04637 P08069 TP53              IGF1R                       1              0
#>  6 Q05516 P20248 ZBTB16            CCNA2                       1              0
#>  7 Q01196 P08700 RUNX1             IL3                         1              0
#>  8 P42224 P38936 STAT1             CDKN1A                      1              1
#>  9 P40763 P38936 STAT3             CDKN1A                      1              1
#> 10 Q04206 P08183 RELA              ABCB1                       1              1
#> # ℹ 32,607 more rows
#> # ℹ 10 more variables: is_inhibition <int>, consensus_direction <int>,
#> #   consensus_stimulation <int>, consensus_inhibition <int>, sources <chr>,
#> #   references <chr>, curation_effort <int>, dorothea_level <chr>,
#> #   n_references <int>, n_resources <int>
…
