Orthologous gene pairs from Ensembl — ensembl_orthology • OmnipathR
…
    Only the records with orthology information are returned. The
    order of columns is the following: defaults of organism_a, extra
    attributes of organism_b, defaults of organism_b, extra attributes
    of organism_b.

    Examples

if (FALSE) {
sffish <- ensembl_orthology(
    organism_b = 'Siamese fighting fish',
    attrs_a = 'external_gene_name',
    attrs_b = 'associated_gene_name'
)
sffish
# # A tibble: 175,608 × 10
#    ensembl_gene_id ensembl_transcript_id ensembl_peptide. external_gene_n.
#    <chr>           <chr>                 <chr>            <chr>
#  1 ENSG00000277196 ENST00000621424       ENSP00000481127  NA
#  2 ENSG00000277196 ENST00000615165       ENSP00000482462  NA
#  3 ENSG00000278817 ENST00000613204       ENSP00000482514  NA
#  4 ENSG00000274847 ENST00000400754       ENSP00000478910  MAFIP
#  5 ENSG00000273748 ENST00000612919       ENSP00000479921  NA
# # . with 175,603 more rows, and 6 more variables:
# #   b_ensembl_peptide <chr>, b_ensembl_gene <chr>,
# #   b_orthology_type <chr>, b_orthology_confidence <dbl>,
# #   b_canonical_transcript_protein <chr>, b_associated_gene_name <chr>
…
