Gene annotations from Gene Ontology — go_annot_download • OmnipathR
…
    Value

A tibble (data frame) of annotations as it is provided by the
    database

    Examples

goa_data <- go_annot_download()
goa_data
#> # A tibble: 635,753 × 17
#>    db        db_ob…¹ db_ob…² quali…³ go_id db_ref evide…⁴ with_…⁵ aspect db_ob…⁶
#>    <fct>     <chr>   <chr>   <fct>   <chr> <chr>  <fct>   <chr>   <fct>  <chr>  
#>  1 UniProtKB A0A024… NUDT4B  enables GO:0… GO_RE… IEA     UniPro… F      Diphos…
#>  2 UniProtKB A0A024… NUDT4B  enables GO:0… GO_RE… IEA     UniPro… F      Diphos…
#>  3 UniProtKB A0A024… NUDT4B  locate… GO:0… GO_RE… IDA     NA      C      Diphos…
#>  4 UniProtKB A0A075… IGKV3-7 involv… GO:0… GO_RE… IEA     UniPro… P      Probab…
#>  5 UniProtKB A0A075… IGKV3-7 locate… GO:0… GO_RE… IEA     UniPro… C      Probab…
#>  6 UniProtKB A0A075… IGKV3-7 part_of GO:0… GO_RE… IEA     UniPro… C      Probab…
#>  7 UniProtKB A0A075… IGKV1D… involv… GO:0… GO_RE… IEA     UniPro… P      Probab…
#>  8 UniProtKB A0A075… IGKV1D… locate… GO:0… GO_RE… IEA     UniPro… C      Probab…
#>  9 UniProtKB A0A075… IGKV1D… part_of GO:0… GO_RE… IEA     UniPro… C      Probab…
#> 10 UniProtKB A0A075… IGLV4-… involv… GO:0… GO_RE… IEA     UniPro… P      Immuno…
#> # … with 635,743 more rows, 7 more variables: db_object_synonym <chr>,
#> #   db_object_type <fct>, taxon <fct>, date <date>, assigned_by <fct>,
#> #   annotation_extension <chr>, gene_product_from_id <chr>, and abbreviated
#> #   variable names ¹​db_object_id, ²​db_object_symbol, ³​qualifier,
#> #   ⁴​evidence_code, ⁵​with_or_from, ⁶​db_object_name
…
