Downloads interactions from the Guide to Pharmacology database — guide2pharma_download • OmnipathR
…
guide2pharma_download()

    Value

    A tibble (data frame) of interactions as it is provided by the
database

    Examples

g2p_data <- guide2pharma_download()
g2p_data

#> # A tibble: 21,918 x 38
#>    target           target_id target_gene_symb… target_uniprot target_ensembl_g…
#>    <chr>                <dbl> <chr>             <chr>          <chr>            
#>  1 12S-LOX               1387 ALOX12            P18054         ENSG00000108839  
#>  2 15-LOX-1              1388 ALOX15            P16050         ENSG00000161905  
#>  3 15-LOX-1              1388 ALOX15            P16050         ENSG00000161905  
#>  4 15-LOX-1              1388 ALOX15            P16050         ENSG00000161905  
#>  5 15-LOX-1              1388 ALOX15            P16050         ENSG00000161905  
#>  6 15-LOX-2              1389 ALOX15B           O15296         ENSG00000179593  
#>  7 15-LOX-2              1389 ALOX15B           O15296         ENSG00000179593  
#>  8 3-Mercaptopyruv…      1446 MPST              P25325         ENSG00000128309  
#>  9 3-phosphoinosit…      1519 PDPK1             O15530         ENSG00000140992  
#> 10 3-phosphoinosit…      1519 PDPK1             O15530         ENSG00000140992  
#> # … with 21,908 more rows, and 33 more variables: target_ligand <chr>,
#> #   target_ligand_id <chr>, target_ligand_gene_symbol <chr>,
#> #   target_ligand_ensembl_gene_id <chr>, target_ligand_uniprot <chr>,
#> #   target_ligand_pubchem_sid <dbl>, target_species <chr>, ligand <chr>,
#> #   ligand_id <dbl>, ligand_gene_symbol <chr>, ligand_species <chr>,
#> #   ligand_pubchem_sid <dbl>, approved_drug <lgl>, type <chr>, action <chr>,
#> #   action_comment <chr>, selectivity <chr>, endogenous <lgl>,
#> #   primary_target <lgl>, concentration_range <chr>, affinity_units <chr>,
#> #   affinity_high <dbl>, affinity_median <dbl>, affinity_low <dbl>,
…
