Downloads TF-target interactions from HTRIdb — htridb_download • OmnipathR
…
htridb_download()

    Value

    Data frame (tibble) with interactions.

    Examples

htridb_data <- htridb_download()
htridb_data

#> # A tibble: 18,630 x 8
#>      OID GENEID_TF SYMBOL_TF GENEID_TG SYMBOL_TG TECHNIQUE       PUBMED_ID ...8 
#>    <dbl>     <dbl> <chr>         <dbl> <chr>     <chr>               <dbl> <lgl>
#>  1 32399       142 PARP1           675 BRCA2     Electrophoreti…  18990703 NA   
#>  2 32399       142 PARP1           675 BRCA2     Chromatin Immu…  18990703 NA   
#>  3 28907       196 AHR            1543 CYP1A1    Chromatin Immu…  16972788 NA   
#>  4 29466       196 AHR            1543 CYP1A1    Electrophoreti…  10359656 NA   
#>  5 28911       196 AHR            1543 CYP1A1    Chromatin Immu…  17785579 NA   
#>  6 34590       196 AHR            1543 CYP1A1    Electrophoreti…   9698073 NA   
#>  7 34466       196 AHR            1544 CYP1A2    Chromatin Immu…  17785579 NA   
#>  8 34467       196 AHR            1545 CYP1B1    Chromatin Immu…  17785579 NA   
#>  9 34485       196 AHR            1545 CYP1B1    Electrophoreti…  12801909 NA   
#> 10 34470       196 AHR            2353 FOS       Electrophoreti…  10478842 NA   
#> # … with 18,620 more rows
…
