Full list of intercell categories and resources — intercell_summary • OmnipathR
…
#> [770] "flotillin"                                                                 
#> [771] "arc"                                                                       
#> [772] "interferon_regulator"                                                      
#> [773] "cavin_caveolae"                                                            
#> [774] "clathrin_coated_pit"                                                       
#> [775] "collagen_galactosyltransferase"                                            
#> [776] "junctophilin"                                                              
#> [777] "lims1_adhesion"                                                            
#> [778] "maguk_tight_junction"                                                      
#> [779] "parin_adhesion_regulator"                                                  
#> [780] "plakophilin_adhesion_regulator"                                            
#> [781] "actin_regulation_adhesome"                                                 
#> [782] "adhesion_cytoskeleton_adaptor"                                             
#> [783] "intracellular_intercellular_related"                                       
# # A tibble: 1,125 x 3
#    category                parent                  database
#    <chr>                   <chr>                   <chr>
#  1 transmembrane           transmembrane           UniProt_location
#  2 transmembrane           transmembrane           UniProt_topology
#  3 transmembrane           transmembrane           UniProt_keyword
#  4 transmembrane           transmembrane_predicted Phobius
#  5 transmembrane_phobius   transmembrane_predicted Almen2009
# # . with 1,120 more rows
…
