Download the KEGG Pathways database — kegg_pathways_download • OmnipathR
…
#>   KEGG Pathways: AGE-RAGE signaling ... [=================>] 192/197, eta:  1s
#> 
#>   KEGG Pathways: Cushing syndrome       [=================>] 193/197, eta:  1s
#> 
#>   KEGG Pathways: EGFR tyrosine kinas... [=================>] 194/197, eta:  1s
#> 
#>   KEGG Pathways: Platinum drug resis... [=================>] 195/197, eta:  0s
#> 
#>   KEGG Pathways: Antifolate resistance  [=================>] 196/197, eta:  0s
#> 
#>   KEGG Pathways: Endocrine resistance   [==================] 197/197, eta:  0s
#>                                                                               
#> 
kegg_pw
#> # A tibble: 6,193 x 6
#>    uniprot_source uniprot_target type  effect  genesymbol_sour… genesymbol_targ…
#>    <chr>          <chr>          <chr> <chr>   <chr>            <chr>           
#>  1 Q03113         Q15283         PPrel activa… GNA12            RASA2           
#>  2 Q9Y4G8         P62070         PPrel activa… RAPGEF2          RRAS2           
#>  3 Q13972         P62070         PPrel activa… RASGRF1          RRAS2           
#>  4 O95267         P62070         PPrel activa… RASGRP1          RRAS2           
#>  5 P62834         P15056         PPrel activa… RAP1A            BRAF            
#>  6 P01375         P19438         PPrel activa… TNF              TNFRSF1A        
#>  7 P01583         P14778         PPrel activa… IL1A             IL1R1           
#>  8 P48023         P25445         PPrel activa… FASLG            FAS             
#>  9 P01137         P36897         PPrel activa… TGFB1            TGFBR1          
#> 10 P25445         Q9UER7         PPrel activa… FAS              DAXX            
#> # … with 6,183 more rows
# # A tibble: 6,765 x 6
#    uniprot_source uniprot_target type  effect genesymbol_source
#    <chr>          <chr>          <chr> <chr>  <chr>
#  1 Q03113         Q15283         PPrel activ. GNA12
#  2 Q9Y4G8         P62070         PPrel activ. RAPGEF2
#  3 Q13972         P62070         PPrel activ. RASGRF1
#  4 O95267         P62070         PPrel activ. RASGRP1
#  5 P62834         P15056         PPrel activ. RAP1A
# # . with 6,760 more rows, and 1 more variable: genesymbol_target <chr>
# }
…
