Interactions from KGML — kegg_process • OmnipathR
…
kegg_pathway_download

kegg_pathways_download

kegg_pathway_list

    Examples

if (FALSE) {
hsa04350 <- kegg_pathway_download('hsa04350', process = FALSE)
tgf_pathway <- kegg_process(hsa04350$entries, hsa04350$relations)
tgf_pathway
}
# # A tibble: 50 x 12
#    source target type  effect arrow relation_id kegg_id_source
#    <chr>  <chr>  <chr> <chr>  <chr> <chr>       <chr>
#  1 51     49     PPrel activ. -->   hsa04350:1  hsa:7040 hsa:.
#  2 57     55     PPrel activ. -->   hsa04350:2  hsa:151449 hs.
#  3 34     32     PPrel activ. -->   hsa04350:3  hsa:3624 hsa:.
#  4 20     17     PPrel activ. -->   hsa04350:4  hsa:4838
#  5 60     46     PPrel activ. -->   hsa04350:5  hsa:4086 hsa:.
# # . with 45 more rows, and 5 more variables: genesymbol_source <chr>,
# #   uniprot_source <chr>, kegg_id_target <chr>,
# #   genesymbol_target <chr>, uniprot_target <chr>
…
