Organism identifiers from the Orthologous Matrix — oma_organisms • OmnipathR
…
oma_organisms()

    Value

A data frame with organism identifiers.

    See also

    ensembl_organisms

    Examples

oma_organisms()
#> # A tibble: 2,565 × 5
#>    oma_code ncbi_tax_id latin_name                     genome_source oma_version
#>    <chr>          <dbl> <chr>                          <chr>         <chr>      
#>  1 ABSGL           4829 Absidia glauca                 EnsemblGenom… Ensembl Fu…
#>  2 ACAM1         329726 Acaryochloris marina (strain … Genome Revie… 18-MAR-200…
#>  3 ACAPL         133434 Acanthaster planci             Refseq        Refseq; OK…
#>  4 ACCPU         522306 Accumulibacter phosphatis (st… EBI           15-MAY-201…
#>  5 ACEAZ         574087 Acetohalobium arabaticum (str… EBI           09-JAN-201…
#>  6 ACECE         720554 Acetivibrio clariflavus (stra… EBI           23-JUL-201…
#>  7 ACEMN         891968 Acetomicrobium mobile (strain… EBI           23-JUL-201…
#>  8 ACEP3         634452 Acetobacter pasteurianus (str… Genome Revie… 24-NOV-200…
#>  9 ACESD         499177 Acetoanaerobium sticklandii (… EBI           15-OCT-201…
#> 10 ACET1         637887 Acetivibrio thermocellus (str… EBI           22-MAY-201…
#> # ℹ 2,555 more rows
…
