Orthologous pairs of gene symbols between two organisms — oma_pairwise_genesymbols • OmnipathR
…
n:m - many-to-many

only_ids
Logical: include only the two identifier columns, not the
mapping type and the orthology group columns.

    Value

A data frame with orthologous gene pairs.

    Examples

oma_pairwise_genesymbols("human", "mouse")
#> # A tibble: 62,414 × 2
#>    id_organism_a id_organism_b
#>    <chr>         <chr>        
#>  1 ZMYND11       Zmynd11      
#>  2 LARP4B        Larp4b       
#>  3 GTPBP4        Gtpbp4       
#>  4 IDI2          Idi2         
#>  5 IDI2          Idi2         
#>  6 WDR37         Wdr37        
#>  7 ADARB2        Adarb2       
#>  8 PFKP          Pfkp         
#>  9 PITRM1        Pitrm1       
#> 10 AKR1E2        Akr1e2       
#> # ℹ 62,404 more rows
…
