Orthologous pairs between two organisms for ID types not supported by OMA — oma_pairwise_translated • OmnipathR
…
n:m - many-to-many

only_ids
Logical: include only the two identifier columns, not the
mapping type and the orthology group columns.

    Value

    A data frame with orthologous gene pairs.

    Examples

oma_pairwise_translated("human", "mouse")
#> # A tibble: 13,006 × 2
#>    id_organism_a id_organism_b
#>    <chr>         <chr>        
#>  1 P21452        P30549       
#>  2 Q8TAD7        P0C913       
#>  3 Q8N392        Q8K0Q5       
#>  4 O60285        Q641K5       
#>  5 Q07065        Q8BMK4       
#>  6 P78371        P80314       
#>  7 Q8N4U5        Q8K1H7       
#>  8 Q8WU20        Q8C180       
#>  9 O95619        Q9CR11       
#> 10 Q9NW08        P59470       
#> # ℹ 12,996 more rows
…
