Literature curated signaling pathways — omnipath • OmnipathR
…
import_post_translational_interactions

get_interaction_resources

import_all_interactions

interaction_graph

print_interactions

    Examples

pathways <- omnipath()
pathways
#> # A tibble: 81,529 × 15
#>    source target source_genesymbol target_genesymbol is_directed is_stimulation
#>    <chr>  <chr>  <chr>             <chr>                   <dbl>          <dbl>
#>  1 P0DP23 P48995 CALM1             TRPC1                       1              0
#>  2 P0DP25 P48995 CALM3             TRPC1                       1              0
#>  3 P0DP24 P48995 CALM2             TRPC1                       1              0
#>  4 Q03135 P48995 CAV1              TRPC1                       1              1
#>  5 P14416 P48995 DRD2              TRPC1                       1              1
#>  6 Q99750 P48995 MDFI              TRPC1                       1              0
#>  7 Q14571 P48995 ITPR2             TRPC1                       1              1
#>  8 P29966 P48995 MARCKS            TRPC1                       1              0
#>  9 Q13255 P48995 GRM1              TRPC1                       1              1
#> 10 Q13586 P48995 STIM1             TRPC1                       1              1
#> # ℹ 81,519 more rows
#> # ℹ 9 more variables: is_inhibition <dbl>, consensus_direction <dbl>,
#> #   consensus_stimulation <dbl>, consensus_inhibition <dbl>, sources <chr>,
#> #   references <chr>, curation_effort <dbl>, n_references <int>,
#> #   n_resources <int>
…
