Download data from the OmniPath web service — omnipath_query • OmnipathR
…
    Value

Data frame (tibble) or list: the data returned by the OmniPath web
    service (or loaded from cache), after processing. Nested list if the
    "format" parameter is "json", otherwise a tibble.

    Examples

interaction_data <- omnipath_query("interaction", datasets = "omnipath")
interaction_data
#> # A tibble: 81,529 × 8
#>    source target is_directed is_stimulation is_inhibition consensus_direction
#>    <chr>  <chr>        <dbl>          <dbl>         <dbl>               <dbl>
#>  1 P0DP23 P48995           1              0             1                   1
#>  2 P0DP25 P48995           1              0             1                   1
#>  3 P0DP24 P48995           1              0             1                   1
#>  4 Q03135 P48995           1              1             0                   1
#>  5 P14416 P48995           1              1             0                   1
#>  6 Q99750 P48995           1              0             1                   1
#>  7 Q14571 P48995           1              1             0                   1
#>  8 P29966 P48995           1              0             1                   1
#>  9 Q13255 P48995           1              1             0                   1
#> 10 Q13586 P48995           1              1             0                   1
#> # ℹ 81,519 more rows
#> # ℹ 2 more variables: consensus_stimulation <dbl>, consensus_inhibition <dbl>
…
