Interactions from PrePPI — preppi_download • OmnipathR
…
    See also

    preppi_filter

    Examples

preppi <- preppi_download()
preppi

#> # A tibble: 1,545,710 x 15
#>    prot1  prot2  str_score protpep_score str_max_score red_score ort_score
#>    <chr>  <chr>      <dbl>         <dbl>         <dbl>     <dbl>     <dbl>
#>  1 Q13131 P14625     18.6           6.45         18.6      4.25      0.615
#>  2 P06400 Q96N96      1.83         14.3          14.3      4.25      0    
#>  3 Q7Z6V5 Q8NCE0      4.57          0             4.57     0         0    
#>  4 P37058 P15428    485.            0           485.       1.77      0.615
#>  5 O00468 Q9NR23     34.0           0            34.0      0.512     0    
#>  6 Q9Y2X7 Q9NPJ6      0             2.59          2.59     1.01      0    
#>  7 Q8IY84 Q9Y3S1    254.            7.35        254.       0.913     0.615
#>  8 Q13315 Q96T68      1.21          9.34          9.34    19.3       0.615
#>  9 Q6GYQ0 Q92529      2.67         20.6          20.6      0         0    
#> 10 P08575 O14545      0             0             0        0         0    
#> # … with 1,545,700 more rows, and 8 more variables: phy_score <dbl>,
#> #   coexp_score <dbl>, go_score <dbl>, total_score <dbl>, dbs <chr>,
#> #   pubs <chr>, exp_score <dbl>, final_score <dbl>
…
