Downloads ligand-receptor interactions from Ramilowski et al. 2015 — ramilowski_download • OmnipathR
…
ramilowski_download()

    Value

    A data frame (tibble) with interactions.

    Examples

rami_interactions <- ramilowski_download()
rami_interactions

#> # A tibble: 2,557 x 16
#>    Pair.Name  Ligand.Approved… Ligand.Name Receptor.Approv… Receptor.Name  DLRP 
#>    <chr>      <chr>            <chr>       <chr>            <chr>          <chr>
#>  1 A2M_LRP1   A2M              alpha-2-ma… LRP1             low density l… NA   
#>  2 AANAT_MTN… AANAT            aralkylami… MTNR1A           melatonin rec… NA   
#>  3 AANAT_MTN… AANAT            aralkylami… MTNR1B           melatonin rec… NA   
#>  4 ACE_AGTR2  ACE              angiotensi… AGTR2            angiotensin I… NA   
#>  5 ACE_BDKRB2 ACE              angiotensi… BDKRB2           bradykinin re… NA   
#>  6 ADAM10_AXL ADAM10           ADAM metal… AXL              AXL receptor … NA   
#>  7 ADAM10_EP… ADAM10           ADAM metal… EPHA3            EPH receptor … NA   
#>  8 ADAM12_IT… ADAM12           ADAM metal… ITGA9            integrin, alp… NA   
#>  9 ADAM12_IT… ADAM12           ADAM metal… ITGB1            integrin, bet… NA   
#> 10 ADAM12_SD… ADAM12           ADAM metal… SDC4             syndecan 4     NA   
#> # … with 2,547 more rows, and 10 more variables: HPMR <chr>, IUPHAR <chr>,
#> #   HPRD <chr>, STRING.binding <chr>, STRING.experiment <chr>,
#> #   HPMR.Ligand <chr>, HPMR.Receptor <chr>, PMID.Manual <chr>,
#> #   Pair.Source <chr>, Pair.Evidence <chr>
…
