Downloads TF-target interactions from ReMap — remap_dorothea_download • OmnipathR
…
remap_dorothea_download()

    Value

Data frame with TF-target relationships.

    See also

    remap_tf_target_download

    Examples

remap_interactions <- remap_dorothea_download()
remap_interactions
#> # A tibble: 136,988 × 2
#>    tf    target    
#>    <chr> <chr>     
#>  1 ADNP  ABCC1     
#>  2 ADNP  ABCC6     
#>  3 ADNP  ABHD5     
#>  4 ADNP  ABT1      
#>  5 ADNP  AC002066.1
#>  6 ADNP  AC002127.4
#>  7 ADNP  AC005514.2
#>  8 ADNP  AC006076.1
#>  9 ADNP  AC006552.1
#> 10 ADNP  AC007319.1
#> # ℹ 136,978 more rows
…
