Downloads the list of transcription factors from TF census — tfcensus_download • OmnipathR
…
tfcensus_download()

    Value

    A data frame (tibble) listing transcription factors.

    Examples

tfcensus <- tfcensus_download()
tfcensus

#> # A tibble: 1,987 x 7
#>    Class `Ensembl ID`  `IPI ID`    `Interpro DBD` `Interpro DNA-b… `HGNC symbol`
#>    <chr> <chr>         <chr>       <chr>          <chr>            <chr>        
#>  1 a     ENSG00000001… IPI0021847… NA             IPR001289        NFYA         
#>  2 a     ENSG00000004… IPI00045066 IPR000047;IPR… NA               ARX          
#>  3 a     ENSG00000005… IPI0001075… IPR001356;IPR… NA               HOXA11       
#>  4 a     ENSG00000005… IPI0029906… IPR000910;IPR… NA               SOX8         
#>  5 a     ENSG00000005… IPI0001233… IPR007087;IPR… IPR006794        ZFX          
#>  6 a     ENSG00000006… IPI00008195 IPR000047;IPR… NA               DLX6         
#>  7 a     ENSG00000006… IPI0022106… IPR000418;IPR… NA               ETV1         
#>  8 a     ENSG00000007… IPI0021880… IPR001356;IPR… NA               PAX6         
#>  9 a     ENSG00000007… IPI0038545… NA             IPR000818;IPR01… TEAD3        
#> 10 a     ENSG00000007… IPI00290548 IPR003316;IPR… IPR015633        E2F2         
#> # … with 1,977 more rows, and 1 more variable: Tissue-specificity <chr>
…
