Translate gene, protein and small molecule identifiers from multiple columns — translate_ids_multi • OmnipathR
…
A data frame with all source columns translated to all target identifiers.
The number of new columns is the product of source and target columns. The
target columns are distinguished by the suffexes added to their names.

    See also

    translate_ids

    Examples

ia <- import_omnipath_interactions()
#> NULL
translate_ids_multi(ia, source = uniprot, target, ensp, ensembl = TRUE)
#> # A tibble: 560,056 × 17
#>    source target source_genesymbol target_genesymbol is_directed is_stimulation
#>    <chr>  <chr>  <chr>             <chr>                   <dbl>          <dbl>
#>  1 P0DP23 P48995 CALM1             TRPC1                       1              0
#>  2 P0DP23 P48995 CALM1             TRPC1                       1              0
#>  3 P0DP25 P48995 CALM3             TRPC1                       1              0
#>  4 P0DP25 P48995 CALM3             TRPC1                       1              0
#>  5 P0DP25 P48995 CALM3             TRPC1                       1              0
#>  6 P0DP25 P48995 CALM3             TRPC1                       1              0
#>  7 P0DP24 P48995 CALM2             TRPC1                       1              0
#>  8 P0DP24 P48995 CALM2             TRPC1                       1              0
#>  9 Q03135 P48995 CAV1              TRPC1                       1              1
#> 10 Q03135 P48995 CAV1              TRPC1                       1              1
#> # ℹ 560,046 more rows
#> # ℹ 11 more variables: is_inhibition <dbl>, consensus_direction <dbl>,
#> #   consensus_stimulation <dbl>, consensus_inhibition <dbl>, sources <chr>,
#> #   references <chr>, curation_effort <dbl>, n_references <int>,
#> #   n_resources <int>, ensp_source <chr>, ensp_target <chr>
…
