Creates an ID translation table from UniProt data — uniprot_full_id_mapping_table • OmnipathR
…
    See also

    translate_ids

    Examples

uniprot_entrez <- uniprot_full_id_mapping_table(to = 'entrez')
uniprot_entrez

#> # A tibble: 19,179 x 2
#>    From   To    
#>    <chr>  <chr> 
#>  1 Q00266 4143  
#>  2 Q8NB16 197259
#>  3 O94851 9645  
#>  4 Q8TDZ2 64780 
#>  5 Q9NPJ6 29079 
#>  6 Q8N635 254528
#>  7 O15553 4210  
#>  8 Q8NCK7 162515
#>  9 Q9HD23 57380 
#> 10 Q9NYP9 54069 
#> # … with 19,169 more rows
…
